[{
	"nombre": "100 años de soledad",
	"editorial": "Editorial Planeta",
	"autor": "Gabriel García Márquez",
	"edicion": 1
}, {
	"nombre": "Don Quijote de la Mancha",
	"editorial": "Española",
	"autor": "Miguel de Cervantes",
	"edicion": 3
}
]
